1,mcq_single_answer,question_text_1,medium,option_text_1,option_text_2,option_text_3,option_text_4,A,10
2,mcq_single_answer,question_text_2,easy,option_text_1,option_text_2,option_text_3,option_text_4,B,10
3,mcq_single_answer,question_text_3,medium,option_text_1,option_text_2,option_text_3,option_text_4,A,10
4,mcq_single_answer,question_text_4,easy,option_text_1,option_text_2,option_text_3,option_text_4,B,20
5,mcq_single_answer,question_text_5,medium,option_text_1,option_text_2,option_text_3,option_text_4,A,20
6,mcq_single_answer,question_text_6,easy,option_text_1,option_text_2,option_text_3,option_text_4,B,10
7,mcq_single_answer,question_text_7,medium,option_text_1,option_text_2,option_text_3,option_text_4,A,20
8,mcq_single_answer,question_text_8,easy,option_text_1,option_text_2,option_text_3,option_text_4,B,10
9,mcq_single_answer,question_text_9,hard,option_text_1,option_text_2,option_text_3,option_text_4,A,30
10,mcq_single_answer,question_text_10,easy,option_text_1,option_text_2,option_text_3,option_text_4,B,10
11,mcq_multiple_answer,question_text_11,medium,option_text_1,option_text_2,option_text_3,option_text_4,A;B,10
12,mcq_multiple_answer,question_text_12,easy,option_text_1,option_text_2,option_text_3,option_text_4,B;C,10
13,mcq_multiple_answer,question_text_13,medium,option_text_1,option_text_2,option_text_3,option_text_4,C;D,20
14,mcq_multiple_answer,question_text_14,easy,option_text_1,option_text_2,option_text_3,option_text_4,A;B,10
15,mcq_multiple_answer,question_text_15,medium,option_text_1,option_text_2,option_text_3,option_text_4,B;C,20
16,mcq_multiple_answer,question_text_16,easy,option_text_1,option_text_2,option_text_3,option_text_4,C;D,10
17,mcq_multiple_answer,question_text_17,medium,option_text_1,option_text_2,option_text_3,option_text_4,A;B,10
18,mcq_multiple_answer,question_text_18,easy,option_text_1,option_text_2,option_text_3,option_text_4,B;C,20
19,mcq_multiple_answer,question_text_19,hard,option_text_1,option_text_2,option_text_3,option_text_4,C;D,10
20,mcq_multiple_answer,question_text_20,easy,option_text_1,option_text_2,option_text_3,option_text_4,A;B,10